%YAML 1.1
%TAG !u! tag:unity3d.com,2011:
--- !u!1 &121672
GameObject:
  m_ObjectHideFlags: 0
  m_PrefabParentObject: {fileID: 0}
  m_PrefabInternal: {fileID: 100100000}
  serializedVersion: 4
  m_Component:
  - 4: {fileID: 426488}
  - 114: {fileID: 11405742}
  - 114: {fileID: 11460932}
  m_Layer: 0
  m_Name: Main
  m_TagString: Untagged
  m_Icon: {fileID: 0}
  m_NavMeshLayer: 0
  m_StaticEditorFlags: 0
  m_IsActive: 1
--- !u!4 &426488
Transform:
  m_ObjectHideFlags: 1
  m_PrefabParentObject: {fileID: 0}
  m_PrefabInternal: {fileID: 100100000}
  m_GameObject: {fileID: 121672}
  m_LocalRotation: {x: 0, y: 0, z: 0, w: 1}
  m_LocalPosition: {x: 0, y: 0, z: 0}
  m_LocalScale: {x: 1, y: 1, z: 1}
  m_Children: []
  m_Father: {fileID: 0}
  m_RootOrder: 0
--- !u!114 &11405742
MonoBehaviour:
  m_ObjectHideFlags: 1
  m_PrefabParentObject: {fileID: 0}
  m_PrefabInternal: {fileID: 100100000}
  m_GameObject: {fileID: 121672}
  m_Enabled: 1
  m_EditorHideFlags: 0
  m_Script: {fileID: 11500000, guid: 04f54f419366f3c42835ac4c4b0903be, type: 3}
  m_Name: 
  m_EditorClassIdentifier: 
  keys: 0
  maxKeys: 5
  keyText: {fileID: 0}
  levelGate: {fileID: 403048, guid: bc4d1ceae013bbc458056864d3c22424, type: 2}
--- !u!114 &11460932
MonoBehaviour:
  m_ObjectHideFlags: 1
  m_PrefabParentObject: {fileID: 0}
  m_PrefabInternal: {fileID: 100100000}
  m_GameObject: {fileID: 121672}
  m_Enabled: 1
  m_EditorHideFlags: 0
  m_Script: {fileID: 11500000, guid: 2a38a52865083294e8f43a8647e65917, type: 3}
  m_Name: 
  m_EditorClassIdentifier: 
  cube: {fileID: 450862, guid: 61e835c618b4a0144af8bedeafd9c0ec, type: 2}
  distBetweenCubes: {x: 5, y: 3, z: 5}
  offsetAll: {x: -22.5, y: 1.5, z: -22.5}
--- !u!1001 &100100000
Prefab:
  m_ObjectHideFlags: 1
  serializedVersion: 2
  m_Modification:
    m_TransformParent: {fileID: 0}
    m_Modifications: []
    m_RemovedComponents: []
  m_ParentPrefab: {fileID: 0}
  m_RootGameObject: {fileID: 121672}
  m_IsPrefabParent: 1
